<?xml version="1.0" encoding="UTF-8"?>
<testng-results skipped="0" failed="0" total="3" passed="3">
  <reporter-output>
  </reporter-output>
  <suite name="BPMSTEST" duration-ms="5682" started-at="2018-07-06T06:53:52Z" finished-at="2018-07-06T06:53:57Z">
    <groups>
    </groups>
    <test name="TestCaseDemo" duration-ms="2883" started-at="2018-07-06T06:53:52Z" finished-at="2018-07-06T06:53:54Z">
      <class name="testSuite.TestCaseDemo">
        <test-method status="PASS" signature="getIt(java.lang.String, java.lang.String)[pri:0, instance:testSuite.TestCaseDemo@3498ed]" name="getIt" is-config="true" duration-ms="369" started-at="2018-07-06T14:53:52Z" finished-at="2018-07-06T14:53:52Z">
          <params>
            <param index="0">
              <value>
                <![CDATA[http://cas.sit.gz.essa]]>
              </value>
            </param>
            <param index="1">
              <value>
                <![CDATA[http://bpms.sit.gz.essa]]>
              </value>
            </param>
          </params>
          <reporter-output>
          </reporter-output>
        </test-method> <!-- getIt -->
        <test-method status="PASS" signature="loginTestCase(java.lang.String, java.lang.String, java.lang.String, java.lang.String)[pri:0, instance:testSuite.TestCaseDemo@3498ed]" name="loginTestCase" duration-ms="92" started-at="2018-07-06T14:53:52Z" finished-at="2018-07-06T14:53:52Z">
          <params>
            <param index="0">
              <value>
                <![CDATA[http://cas.sit.gz.essa]]>
              </value>
            </param>
            <param index="1">
              <value>
                <![CDATA[http://bpms.sit.gz.essa]]>
              </value>
            </param>
            <param index="2">
              <value>
                <![CDATA[anna]]>
              </value>
            </param>
            <param index="3">
              <value>
                <![CDATA[essa123]]>
              </value>
            </param>
          </params>
          <reporter-output>
          </reporter-output>
        </test-method> <!-- loginTestCase -->
        <test-method status="PASS" signature="queryBuyerTestCase(java.lang.String)[pri:0, instance:testSuite.TestCaseDemo@3498ed]" name="queryBuyerTestCase" duration-ms="2413" started-at="2018-07-06T14:53:52Z" finished-at="2018-07-06T14:53:54Z">
          <params>
            <param index="0">
              <value>
                <![CDATA[http://bpms.sit.gz.essa]]>
              </value>
            </param>
          </params>
          <reporter-output>
          </reporter-output>
        </test-method> <!-- queryBuyerTestCase -->
      </class> <!-- testSuite.TestCaseDemo -->
    </test> <!-- TestCaseDemo -->
    <test name="QueryBuyerTestCase" duration-ms="2778" started-at="2018-07-06T06:53:54Z" finished-at="2018-07-06T06:53:57Z">
      <class name="testSuite.QueryBuyerTestCase">
        <test-method status="PASS" signature="customerLogin(java.lang.String, java.lang.String, java.lang.String, java.lang.String)[pri:0, instance:testSuite.QueryBuyerTestCase@1f2a3a5]" name="customerLogin" is-config="true" duration-ms="66" started-at="2018-07-06T14:53:54Z" finished-at="2018-07-06T14:53:55Z">
          <params>
            <param index="0">
              <value>
                <![CDATA[http://cas.sit.gz.essa]]>
              </value>
            </param>
            <param index="1">
              <value>
                <![CDATA[http://bpms.sit.gz.essa]]>
              </value>
            </param>
            <param index="2">
              <value>
                <![CDATA[anna]]>
              </value>
            </param>
            <param index="3">
              <value>
                <![CDATA[essa123]]>
              </value>
            </param>
          </params>
          <reporter-output>
          </reporter-output>
        </test-method> <!-- customerLogin -->
        <test-method status="PASS" signature="queryBuyerTestCase(java.lang.String)[pri:0, instance:testSuite.QueryBuyerTestCase@1f2a3a5]" name="queryBuyerTestCase" duration-ms="2711" started-at="2018-07-06T14:53:55Z" finished-at="2018-07-06T14:53:57Z">
          <params>
            <param index="0">
              <value>
                <![CDATA[http://bpms.sit.gz.essa]]>
              </value>
            </param>
          </params>
          <reporter-output>
          </reporter-output>
        </test-method> <!-- queryBuyerTestCase -->
      </class> <!-- testSuite.QueryBuyerTestCase -->
      <class name="testSuite.TestCaseDemo">
        <test-method status="PASS" signature="closeClient()[pri:0, instance:testSuite.TestCaseDemo@3498ed]" name="closeClient" is-config="true" duration-ms="1" started-at="2018-07-06T14:53:57Z" finished-at="2018-07-06T14:53:57Z">
          <reporter-output>
          </reporter-output>
        </test-method> <!-- closeClient -->
        <test-method status="PASS" signature="closeClient()[pri:0, instance:testSuite.QueryBuyerTestCase@1f2a3a5]" name="closeClient" is-config="true" duration-ms="0" started-at="2018-07-06T14:53:57Z" finished-at="2018-07-06T14:53:57Z">
          <reporter-output>
          </reporter-output>
        </test-method> <!-- closeClient -->
      </class> <!-- testSuite.TestCaseDemo -->
    </test> <!-- QueryBuyerTestCase -->
  </suite> <!-- BPMSTEST -->
</testng-results>
